…
```
## 
## ℹ Use `spec()` to retrieve the full column specification for this data.
## ℹ Specify the column types or set `show_col_types = FALSE` to quiet this message.
```

```r
d
```

```
## # A tibble: 1,854 × 9
##       id  c1_1   c2a   c2b   c2c   c2d   c2e c17_1hensa  c15a
##    <dbl> <dbl> <dbl> <dbl> <dbl> <dbl> <dbl>      <dbl> <dbl>
##  1     1     2     2     3     3     3     2       68       1
##  2     2     2     1     4     3     5     3       43       2
##  3     3     2     2     4     2     5     4       56       3
##  4     4     1     3     4     1     5     5       39       4
##  5     5     2     1     5     4     5     2       59       1
##  6     6     2     1     2     3     5     2       58       2
##  7     7     1     2     3     3     5     4       41       4
##  8     8     2     2     2     2     3     3       46       3
##  9     9     1     1     4     4     5     3       35.5     3
## 10    10     2     2     3     3     5     2       46       2
## # … with 1,844 more rows
```
…
