# 回帰分析 {#regression}






``` r
library(tidyverse)
d_csv <- read_csv("data/example_7.csv")
d_csv
```

```
## # A tibble: 1,854 × 6
##       id  c1_1  c15a   c19 m25m_b m25f_b
##    <dbl> <dbl> <dbl> <dbl>  <dbl>  <dbl>
##  1     1     2     3     2      3      4
##  2     2     2     5     6      4      4
##  3     3     2     2     6      7      7
##  4     4     1     3     3      3      6
##  5     5     2     1     6      5      4
##  6     6     2     1     6      7      7
##  7     7     2     1     6      7      7
##  8     8     1     5     2      6      1
##  9     9     1     3     7      3      5
## 10    10     1     4     6      4      3
## # ℹ 1,844 more rows
```
…
```
## # A tibble: 1,854 × 6
##       id gender grade   asp medu   fedu  
##    <dbl> <fct>  <dbl> <dbl> <fct>  <fct> 
##  1     1 Women      2    12 JH/HS  JC/PTC
##  2     2 Women      0    16 JC/PTC JC/PTC
##  3     3 Women      3    16 Univ   Univ  
##  4     4 Men        2    14 JH/HS  JC/PTC
##  5     5 Women      4    16 JC/PTC JC/PTC
##  6     6 Women      4    16 Univ   Univ  
##  7     7 Women      4    16 Univ   Univ  
##  8     8 Men        0    12 JC/PTC JH/HS 
##  9     9 Men        2    18 JH/HS  JC/PTC
## 10    10 Men        1    16 JC/PTC JH/HS 
## # ℹ 1,844 more rows
```
…
