…
データを選択する．ここでは性別と進学目標高校の偏差値としている．


```r
d1 <- d %>% select(gender,hensa,grade)
d1
```

```
## # A tibble: 1,854 × 3
##    gender hensa grade
##    <fct>  <dbl> <fct>
##  1 2       64.5 5    
##  2 2       43   4    
##  3 1       41   2    
##  4 1       61   5    
##  5 2       46   3    
##  6 1       44   3    
##  7 2       45   3    
##  8 1       36   1    
##  9 2       60   4    
## 10 1       50   3    
## # … with 1,844 more rows
```
…
## 補助変数




```r
d2 <- d %>% select(gender,hensa,grade, contains("rc2"))
d2
```

```
## # A tibble: 1,854 × 8
##    gender hensa grade  rc2a  rc2b  rc2c  rc2d  rc2e
##    <fct>  <dbl> <fct> <dbl> <dbl> <dbl> <dbl> <dbl>
##  1 2       64.5 5         5     1     2     1     4
##  2 2       43   4         5     2     3     1     3
##  3 1       41   2         4     3     3     1     2
##  4 1       61   5         5     1     2     1     5
##  5 2       46   3         4     4     4     3     3
##  6 1       44   3         5     4     3     2     4
##  7 2       45   3         5     2     1     1     4
##  8 1       36   1         4     1     5     4     4
##  9 2       60   4         4     3     2     2     4
## 10 1       50   3         5     1     2     1     5
## # … with 1,844 more rows
```
…
