5 データの読み込み | 社会調査のためのR入門
…
d_csv <- read_csv("data/example_1.csv")

## Rows: 1854 Columns: 9

## ─ Column specification ────────────────────────────
## Delimiter: ","
## dbl (9): id, c1_1, c2a, c2b, c2c, c2d, c2e, c17_1hensa, c15a

## 
## ℹ Use `spec()` to retrieve the full column specification for this data.
## ℹ Specify the column types or set `show_col_types = FALSE` to quiet this message.

d_csv

## # A tibble: 1,854 × 9
##       id  c1_1   c2a   c2b   c2c   c2d   c2e c17_1hensa  c15a
##    <dbl> <dbl> <dbl> <dbl> <dbl> <dbl> <dbl>      <dbl> <dbl>
##  1     1     2     2     3     3     3     2       68       1
##  2     2     2     1     4     3     5     3       43       2
##  3     3     2     2     4     2     5     4       56       3
##  4     4     1     3     4     1     5     5       39       4
##  5     5     2     1     5     4     5     2       59       1
##  6     6     2     1     2     3     5     2       58       2
##  7     7     1     2     3     3     5     4       41       4
##  8     8     2     2     2     2     3     3       46       3
##  9     9     1     1     4     4     5     3       35.5     3
## 10    10     2     2     3     3     5     2       46       2
## # … with 1,844 more rows

5.1.2 xlsxデータの読み込み

xlsxデータを読み込む．

library(readxl)
d_excel <- read_excel("data/example_1.xlsx")
d_excel

## # A tibble: 1,854 × 9
##       id  c1_1   c2a   c2b   c2c   c2d   c2e c17_1hensa  c15a
##    <dbl> <dbl> <dbl> <dbl> <dbl> <dbl> <dbl>      <dbl> <dbl>
##  1     1     2     2     3     3     3     2       68       1
##  2     2     2     1     4     3     5     3       43       2
##  3     3     2     2     4     2     5     4       56       3
##  4     4     1     3     4     1     5     5       39       4
##  5     5     2     1     5     4     5     2       59       1
##  6     6     2     1     2     3     5     2       58       2
##  7     7     1     2     3     3     5     4       41       4
##  8     8     2     2     2     2     3     3       46       3
##  9     9     1     1     4     4     5     3       35.5     3
## 10    10     2     2     3     3     5     2       46       2
## # … with 1,844 more rows

5.1.3 dtaデータの読み込み

Stataで用いられているdtaデータを読み込むにはhavenパッケージのread_dtaを用いる．
SPSSの場合はread_sav，SASの場合はread_sasを使えばよい．

library(haven)
d_dta <- read_dta("data/example_1.dta")
d_dta

## # A tibble: 1,854 × 9
##       id      c1_1      c2a      c2b      c2c     c2d     c2e c17_1hensa    c15a
##    <dbl> <dbl+lbl> <dbl+lb> <dbl+lb> <dbl+lb> <dbl+l> <dbl+l>  <dbl+lbl> <dbl+l>
##  1     1  2 [女性] 2 [まああて… 3 [どちらと… 3 [どちらと… 3 [どちら… 2 [まああ…       68   1 [上のほ…
##  2     2  2 [女性] 1 [あてはま… 4 [あまりあ… 3 [どちらと… 5 [あては… 3 [どちら…       43   2 [真ん中…
##  3     3  2 [女性] 2 [まああて… 4 [あまりあ… 2 [まああて… 5 [あては… 4 [あまり…       56   3 [真ん中…
##  4     4  1 [男性] 3 [どちらと… 4 [あまりあ… 1 [あてはま… 5 [あては… 5 [あては…       39   4 [真ん中…
##  5     5  2 [女性] 1 [あてはま… 5 [あてはま… 4 [あまりあ… 5 [あては… 2 [まああ…       59   1 [上のほ…
##  6     6  2 [女性] 1 [あてはま… 2 [まああて… 3 [どちらと… 5 [あては… 2 [まああ…       58   2 [真ん中…
##  7     7  1 [男性] 2 [まああて… 3 [どちらと… 3 [どちらと… 5 [あては… 4 [あまり…       41   4 [真ん中…
##  8     8  2 [女性] 2 [まああて… 2 [まああて… 2 [まああて… 3 [どちら… 3 [どちら…       46   3 [真ん中…
##  9     9  1 [男性] 1 [あてはま… 4 [あまりあ… 4 [あまりあ… 5 [あては… 3 [どちら…       35.5 3 [真ん中…
## 10    10  2 [女性] 2 [まああて… 3 [どちらと… 3 [どちらと… 5 [あては… 2 [まああ…       46   2 [真ん中…
## # … with 1,844 more rows

5.1.4 変数ラベルと値ラベルの削除

もともとのデータセットに変数ラベルや値ラベルがある場合があるが，それらを除きたければzap_labelとzap_labelsを用いる．個人的にはラベルは無いほうがよいと考えている（基本はコードブックなどで確認すべきこと）ので，削除する．

d_dta <- d_dta %>% zap_label()
d_dta <- d_dta %>% zap_labels()
d_dta

## # A tibble: 1,854 × 9
##       id  c1_1   c2a   c2b   c2c   c2d   c2e c17_1hensa  c15a
##    <dbl> <dbl> <dbl> <dbl> <dbl> <dbl> <dbl>      <dbl> <dbl>
##  1     1     2     2     3     3     3     2       68       1
##  2     2     2     1     4     3     5     3       43       2
##  3     3     2     2     4     2     5     4       56       3
##  4     4     1     3     4     1     5     5       39       4
##  5     5     2     1     5     4     5     2       59       1
##  6     6     2     1     2     3     5     2       58       2
##  7     7     1     2     3     3     5     4       41       4
##  8     8     2     2     2     2     3     3       46       3
##  9     9     1     1     4     4     5     3       35.5     3
## 10    10     2     2     3     3     5     2       46       2
## # … with 1,844 more rows
…
d <- read_csv("data/example_1.csv")

## Rows: 1854 Columns: 9

## ─ Column specification ────────────────────────────
## Delimiter: ","
## dbl (9): id, c1_1, c2a, c2b, c2c, c2d, c2e, c17_1hensa, c15a

## 
## ℹ Use `spec()` to retrieve the full column specification for this data.
## ℹ Specify the column types or set `show_col_types = FALSE` to quiet this message.

d

## # A tibble: 1,854 × 9
##       id  c1_1   c2a   c2b   c2c   c2d   c2e c17_1hensa  c15a
##    <dbl> <dbl> <dbl> <dbl> <dbl> <dbl> <dbl>      <dbl> <dbl>
##  1     1     2     2     3     3     3     2       68       1
##  2     2     2     1     4     3     5     3       43       2
##  3     3     2     2     4     2     5     4       56       3
##  4     4     1     3     4     1     5     5       39       4
##  5     5     2     1     5     4     5     2       59       1
##  6     6     2     1     2     3     5     2       58       2
##  7     7     1     2     3     3     5     4       41       4
##  8     8     2     2     2     2     3     3       46       3
##  9     9     1     1     4     4     5     3       35.5     3
## 10    10     2     2     3     3     5     2       46       2
## # … with 1,844 more rows
…
group_by
グループ別の処理
d %>% group_by(group) %>% summarise(Median = median(var1))

ungroup
グループ化の解除
d %>% group_by(group) %>% summarise(Median = median(var1)) %>% ungroup()

5.3.1 変数を選択する

d %>% select(id, c1_1)

## # A tibble: 1,854 × 2
##       id  c1_1
##    <dbl> <dbl>
##  1     1     2
##  2     2     2
##  3     3     2
##  4     4     1
##  5     5     2
##  6     6     2
##  7     7     1
##  8     8     2
##  9     9     1
## 10    10     2
## # … with 1,844 more rows

c2を含む変数を選択する場合にはcontainsを用いる．

d %>% select(id, contains("c2"))

## # A tibble: 1,854 × 6
##       id   c2a   c2b   c2c   c2d   c2e
##    <dbl> <dbl> <dbl> <dbl> <dbl> <dbl>
##  1     1     2     3     3     3     2
##  2     2     1     4     3     5     3
##  3     3     2     4     2     5     4
##  4     4     3     4     1     5     5
##  5     5     1     5     4     5     2
##  6     6     1     2     3     5     2
##  7     7     2     3     3     5     4
##  8     8     2     2     2     3     3
##  9     9     1     4     4     5     3
## 10    10     2     3     3     5     2
## # … with 1,844 more rows
…
ends_with
変数名の終わりが一致

contains
変数名の文字が一致

matches
正規表現で一致

num_range
q01,q02,…のように一致

d %>% select(matches("[ia]"))

## # A tibble: 1,854 × 4
##       id   c2a c17_1hensa  c15a
##    <dbl> <dbl>      <dbl> <dbl>
##  1     1     2       68       1
##  2     2     1       43       2
##  3     3     2       56       3
##  4     4     3       39       4
##  5     5     1       59       1
##  6     6     1       58       2
##  7     7     2       41       4
##  8     8     2       46       3
##  9     9     1       35.5     3
## 10    10     2       46       2
## # … with 1,844 more rows
…
