11 欠損データの分析 | 社会調査のためのR入門
…
データを選択する．ここでは性別と進学目標高校の偏差値としている．

d1 <- d %>% select(gender,hensa,grade)
d1

## # A tibble: 1,854 × 3
##    gender hensa grade
##    <fct>  <dbl> <fct>
##  1 2       68   5    
##  2 2       43   4    
##  3 2       56   3    
##  4 1       39   2    
##  5 2       59   5    
##  6 2       58   4    
##  7 1       41   2    
##  8 2       46   3    
##  9 1       35.5 3    
## 10 2       46   4    
## # ℹ 1,844 more rows
…
11.9 補助変数

d2 <- d %>% select(gender,hensa,grade, contains("rc2"))
d2

## # A tibble: 1,854 × 8
##    gender hensa grade  rc2a  rc2b  rc2c  rc2d  rc2e
##    <fct>  <dbl> <fct> <dbl> <dbl> <dbl> <dbl> <dbl>
##  1 2       68   5         4     3     3     3     4
##  2 2       43   4         5     2     3     1     3
##  3 2       56   3         4     2     4     1     2
##  4 1       39   2         3     2     5     1     1
##  5 2       59   5         5     1     2     1     4
##  6 2       58   4         5     4     3     1     4
##  7 1       41   2         4     3     3     1     2
##  8 2       46   3         4     4     4     3     3
##  9 1       35.5 3         5     2     2     1     3
## 10 2       46   4         4     3     3     1     4
## # ℹ 1,844 more rows
…
